{
  "cuadros": [
    {
      "id": 1,
      "contrato": "E&E CUBIRO1",
      "campo" : "ARAUCO",
      "fechaRegistro" : 1445606506271,
      "produccion" : 100.9,
      "final" : 8002,
      "version": "ORIGINAL",
      "firmado": false,
      "estado" : "INICIAL"
    },
    {
      "id": 1,
      "contrato": "E&E CUBIRO2",
      "campo" : "ARAUCO",
      "fechaRegistro" : 1445606506271,
      "produccion" : 100.9,
      "final" : 8002,
      "version": "ORIGINAL",
      "firmado": false,
      "estado" : "INICIAL"
    },
    {
      "id": 1,
      "contrato": "E&E CUBIRO3",
      "campo" : "ARAUCO",
      "fechaRegistro" : 1445606506271,
      "produccion" : 100.9,
      "final" : 8002,
      "version": "ORIGINAL",
      "firmado": false,
      "estado" : "INICIAL"
    },
    {
      "id": 2,
      "contrato": "E&E CUBIRO",
      "campo" : "BARRANQUERO",
      "fechaRegistro" : 1445606506271,
      "produccion" : 100.9,
      "final" : 8002,
      "version": "ORIGINAL",
      "firmado": true,
      "estado" : "REGISTRADO"
    },
    {
      "id": 3,
      "contrato": "E&E CUBIRO",
      "campo" : "CARETO",
      "fechaRegistro" : 1445606506271,
      "produccion" : 100.9,
      "final" : 8002,
      "version": "ORIGINAL",
      "firmado": true,
      "estado" : "ENVIADO"
    },
    {
      "id": 1,
      "contrato": "E&E CUBIRO",
      "campo" : "ARAUCO",
      "fechaRegistro" : 1445606506271,
      "produccion" : 100.9,
      "final" : 8002,
      "version": "ORIGINAL",
      "firmado": false,
      "estado" : "INICIAL"
    },
    {
      "id": 3,
      "contrato": "E&E CUBIRO",
      "campo" : "CARETO",
      "fechaRegistro" : 1445606506271,
      "produccion" : 100.9,
      "final" : 8002,
      "version": "ORIGINAL",
      "firmado": true,
      "estado" : "ENVIADO"
    },
    {
      "id": 4,
      "contrato": "E&E CUBIRO",
      "campo" : "CARETO DOS",
      "fechaRegistro" : 1445606506271,
      "produccion" : 100.9,
      "final" : 8002,
      "version": "ORIGINAL",
      "firmado": false,
      "estado" : "APROBADO"
    }
  ]
}