<?xml version="1.0" encoding="utf-8"?>
<!-- Generator: Adobe Illustrator 16.0.0, SVG Export Plug-In . SVG Version: 6.00 Build 0)  -->
<!DOCTYPE svg PUBLIC "-//W3C//DTD SVG 1.1//EN" "http://www.w3.org/Graphics/SVG/1.1/DTD/svg11.dtd">
<svg version="1.1" id="Capa_1" xmlns="http://www.w3.org/2000/svg" xmlns:xlink="http://www.w3.org/1999/xlink" x="0px" y="0px"
	 width="612px" height="792px" viewBox="0 0 612 792" enable-background="new 0 0 612 792" xml:space="preserve">
<title>barril_blanco</title>
<rect y="437.678" fill="#FFFFFF" width="610.602" height="5.753"/>
<text transform="matrix(1.0646 0 0 1 89.1299 398.5)" fill="#FFFFFF" font-family="'Perpetua'" font-size="204.8944"></text>
<text transform="matrix(1.0646 0 0 1 99.1299 573.5)" fill="#FFFFFF" font-family="'Perpetua'" font-size="204.8944">CrM</text>
</svg>
